Suite/Test/Step Name,Browser,Description,Tag,Start time,End time,Duration,Status
PJT_Suite1,Chrome 77.0.3865.90,First Test Suite,,2019-09-24 15:44:53,2019-09-24 15:45:01,8.126s,INCOMPLETE
,,,,,,,
Test Cases/PJT_FirstDay/PJT_ManualTest1,Chrome 77.0.3865.90,First Manual test case,"Manual, NEW, FirstDay",2019-09-24 15:44:53,2019-09-24 15:44:58,4.449s,PASSED
"openBrowser("""")",Chrome 77.0.3865.90,,,2019-09-24 15:44:53,2019-09-24 15:44:55,1.504s,PASSED
"navigateToUrl(""https://opensource-demo.orangehrmlive.com"")",Chrome 77.0.3865.90,,,2019-09-24 15:44:55,2019-09-24 15:44:55,0.678s,PASSED
"setText(findTestObject(""Scripting/Page_OrangeHRM/input_LOGIN Panel_txtUsername""), ""Admin"")",Chrome 77.0.3865.90,,,2019-09-24 15:44:55,2019-09-24 15:44:56,0.235s,PASSED
"setEncryptedText(findTestObject(""Scripting/Page_OrangeHRM/input_Username_txtPassword""), ""hUKwJTbofgPU9eVlw/CnDQ=="")",Chrome 77.0.3865.90,,,2019-09-24 15:44:56,2019-09-24 15:44:56,0.189s,PASSED
"click(findTestObject(""Scripting/Page_OrangeHRM/input_Password_Submit""))",Chrome 77.0.3865.90,,,2019-09-24 15:44:56,2019-09-24 15:44:57,0.688s,PASSED
"click(findTestObject(""Scripting/Page_OrangeHRM/a_Welcome Admin""))",Chrome 77.0.3865.90,,,2019-09-24 15:44:57,2019-09-24 15:44:57,0.422s,PASSED
"waitForElementVisible(findTestObject(""Scripting/Page_OrangeHRM/a_Logout""), 5)",Chrome 77.0.3865.90,,,2019-09-24 15:44:57,2019-09-24 15:44:57,0.149s,PASSED
"click(findTestObject(""Scripting/Page_OrangeHRM/a_Logout""))",Chrome 77.0.3865.90,,,2019-09-24 15:44:57,2019-09-24 15:44:57,0.316s,PASSED
closeBrowser(),Chrome 77.0.3865.90,,,2019-09-24 15:44:57,2019-09-24 15:44:58,0.105s,PASSED
,,,,,,,
Test Cases/PJT_FirstDay/PJT_ScriptTest1,Chrome 77.0.3865.90,Scripting test,"NEW, FirstDay, Scripted",2019-09-24 15:44:58,2019-09-24 15:45:01,3.509s,PASSED
"openBrowser("""")",Chrome 77.0.3865.90,,,2019-09-24 15:44:58,2019-09-24 15:44:59,0.868s,PASSED
"navigateToUrl(""https://opensource-demo.orangehrmlive.com"")",Chrome 77.0.3865.90,,,2019-09-24 15:44:59,2019-09-24 15:44:59,0.664s,PASSED
"setText(findTestObject(""Object Repository/Manual_Mode/Page_OrangeHRM/input_LOGIN Panel_txtUsername""), ""Admin"")",Chrome 77.0.3865.90,,,2019-09-24 15:44:59,2019-09-24 15:44:59,0.152s,PASSED
"setEncryptedText(findTestObject(""Object Repository/Scripting/Page_OrangeHRM/input_Username_txtPassword""), ""hUKwJTbofgPU9eVlw/CnDQ=="")",Chrome 77.0.3865.90,,,2019-09-24 15:44:59,2019-09-24 15:44:59,0.120s,PASSED
"click(findTestObject(""Object Repository/Manual_Mode/Page_OrangeHRM/input_Password_Submit""))",Chrome 77.0.3865.90,,,2019-09-24 15:44:59,2019-09-24 15:45:00,0.760s,PASSED
"click(findTestObject(""Object Repository/Page_OrangeHRM/Page_OrangeHRM/a_Welcome Admin""))",Chrome 77.0.3865.90,,,2019-09-24 15:45:00,2019-09-24 15:45:00,0.101s,PASSED
"waitForElementVisible(findTestObject(""Object Repository/Scripting/Page_OrangeHRM/a_Logout""), 5)",Chrome 77.0.3865.90,,,2019-09-24 15:45:00,2019-09-24 15:45:01,0.356s,PASSED
"click(findTestObject(""Object Repository/Scripting/Page_OrangeHRM/a_Logout""))",Chrome 77.0.3865.90,,,2019-09-24 15:45:01,2019-09-24 15:45:01,0.317s,PASSED
closeBrowser(),Chrome 77.0.3865.90,,,2019-09-24 15:45:01,2019-09-24 15:45:01,0.090s,PASSED
