Suite/Test/Step Name,Browser,Description,Tag,Start time,End time,Duration,Status
Day2_TestSuite1,Chrome 77.0.3865.90,,,2019-09-25 11:56:44,2019-09-25 11:56:53,9.026s,INCOMPLETE
,,,,,,,
Test Cases/PJT_Day2/PJT_Day2Test1,Chrome 77.0.3865.90,,SecondDay,2019-09-25 11:56:44,2019-09-25 11:56:47,2.547s,PASSED
PJT_Keywords.PJIsBest(),Chrome 77.0.3865.90,,,2019-09-25 11:56:45,2019-09-25 11:56:45,0.018s,PASSED
PJT_Keywords.Counting(),Chrome 77.0.3865.90,,,2019-09-25 11:56:45,2019-09-25 11:56:45,0.002s,PASSED
"PJT_Keywords.HiPerson(""Mr. Falcon"")",Chrome 77.0.3865.90,,,2019-09-25 11:56:45,2019-09-25 11:56:45,0.002s,PASSED
,,,,,,,
Test Cases/PJT_Day2/PJT_WebRecTest,Chrome 77.0.3865.90,,,2019-09-25 11:56:47,2019-09-25 11:56:53,6.315s,PASSED
"openBrowser("""")",Chrome 77.0.3865.90,,,2019-09-25 11:56:47,2019-09-25 11:56:48,1.413s,PASSED
navigateToUrl(URL),Chrome 77.0.3865.90,,,2019-09-25 11:56:48,2019-09-25 11:56:49,0.811s,PASSED
"setText(findTestObject(""Page_OrangeHRM/input_LOGIN Panel_txtUsername""), USERNAME)",Chrome 77.0.3865.90,,,2019-09-25 11:56:49,2019-09-25 11:56:49,0.203s,PASSED
"setEncryptedText(findTestObject(""Page_OrangeHRM/input_Username_txtPassword""), PASSWORD)",Chrome 77.0.3865.90,,,2019-09-25 11:56:49,2019-09-25 11:56:50,0.189s,PASSED
"click(findTestObject(""Page_OrangeHRM/input_Password_Submit""))",Chrome 77.0.3865.90,,,2019-09-25 11:56:50,2019-09-25 11:56:50,0.719s,PASSED
"click(findTestObject(""Object Repository/Page_OrangeHRM/a_Welcome Admin""))",Chrome 77.0.3865.90,,,2019-09-25 11:56:50,2019-09-25 11:56:50,0.090s,PASSED
"click(findTestObject(""Page_OrangeHRM/a_Logout""))",Chrome 77.0.3865.90,,,2019-09-25 11:56:50,2019-09-25 11:56:51,0.623s,PASSED
closeBrowser(),Chrome 77.0.3865.90,,,2019-09-25 11:56:51,2019-09-25 11:56:51,0.095s,PASSED
