Suite/Test/Step Name,Browser,Description,Tag,Start time,End time,Duration,Status
PJT_Suite1,Firefox 69.0,First Test Suite,,2019-09-24 16:16:58,2019-09-24 16:17:12,14.218s,INCOMPLETE
,,,,,,,
Test Cases/PJT_FirstDay/PJT_ManualTest1,Firefox 69.0,First Manual test case,"Manual, NEW, FirstDay",2019-09-24 16:16:58,2019-09-24 16:17:04,5.912s,FAILED
"openBrowser("""")",Firefox 69.0,,,2019-09-24 16:16:58,2019-09-24 16:17:01,2.879s,PASSED
"navigateToUrl(""https://opensource-demo.orangehrmlive.com"")",Firefox 69.0,,,2019-09-24 16:17:01,2019-09-24 16:17:02,0.977s,PASSED
"setText(findTestObject(""Scripting/Page_OrangeHRM/input_LOGIN Panel_txtUsername""), ""Admin"")",Firefox 69.0,,,2019-09-24 16:17:02,2019-09-24 16:17:02,0.187s,PASSED
"setEncryptedText(findTestObject(""Scripting/Page_OrangeHRM/input_Username_txtPassword""), ""hUKwJTbofgPU9eVlw/CnDQ=="")",Firefox 69.0,,,2019-09-24 16:17:02,2019-09-24 16:17:02,0.141s,PASSED
"click(findTestObject(""Scripting/Page_OrangeHRM/input_Password_Submit""))",Firefox 69.0,,,2019-09-24 16:17:02,2019-09-24 16:17:03,0.951s,PASSED
"click(findTestObject(""Scripting/Page_OrangeHRM/a_Welcome Admin""))",Firefox 69.0,,,2019-09-24 16:17:03,2019-09-24 16:17:03,0.288s,PASSED
"waitForElementPresent(findTestObject(""Scripting/Page_OrangeHRM/a_Logout""), 5)",Firefox 69.0,,,2019-09-24 16:17:03,2019-09-24 16:17:03,0.055s,PASSED
"click(findTestObject(""Scripting/Page_OrangeHRM/a_Logout""))",Firefox 69.0,,,2019-09-24 16:17:03,2019-09-24 16:17:04,0.268s,FAILED
,,,,,,,
Test Cases/PJT_FirstDay/PJT_ScriptTest1,Firefox 69.0,Scripting test,"NEW, FirstDay, Scripted",2019-09-24 16:17:04,2019-09-24 16:17:12,8.132s,FAILED
"openBrowser("""")",Firefox 69.0,,,2019-09-24 16:17:04,2019-09-24 16:17:09,4.845s,PASSED
"navigateToUrl(""https://opensource-demo.orangehrmlive.com"")",Firefox 69.0,,,2019-09-24 16:17:09,2019-09-24 16:17:10,0.876s,PASSED
"setText(findTestObject(""Object Repository/Manual_Mode/Page_OrangeHRM/input_LOGIN Panel_txtUsername""), ""Admin"")",Firefox 69.0,,,2019-09-24 16:17:10,2019-09-24 16:17:10,0.116s,PASSED
"setEncryptedText(findTestObject(""Object Repository/Scripting/Page_OrangeHRM/input_Username_txtPassword""), ""hUKwJTbofgPU9eVlw/CnDQ=="")",Firefox 69.0,,,2019-09-24 16:17:10,2019-09-24 16:17:10,0.090s,PASSED
"click(findTestObject(""Object Repository/Manual_Mode/Page_OrangeHRM/input_Password_Submit""))",Firefox 69.0,,,2019-09-24 16:17:10,2019-09-24 16:17:11,1.066s,PASSED
"click(findTestObject(""Object Repository/Page_OrangeHRM/Page_OrangeHRM/a_Welcome Admin""))",Firefox 69.0,,,2019-09-24 16:17:11,2019-09-24 16:17:12,0.779s,PASSED
"waitForElementPresent(findTestObject(""Object Repository/Scripting/Page_OrangeHRM/a_Logout""), 5)",Firefox 69.0,,,2019-09-24 16:17:12,2019-09-24 16:17:12,0.049s,PASSED
"click(findTestObject(""Object Repository/Scripting/Page_OrangeHRM/a_Logout""))",Firefox 69.0,,,2019-09-24 16:17:12,2019-09-24 16:17:12,0.211s,FAILED
