Suite/Test/Step Name,Browser,Description,Tag,Start time,End time,Duration,Status
PJT_Suite1,Firefox 69.0,First Test Suite,,2019-09-24 15:41:13,2019-09-24 15:41:39,26.440s,INCOMPLETE
,,,,,,,
Test Cases/PJT_FirstDay/PJT_ManualTest1,Firefox 69.0,First Manual test case,"Manual, NEW, FirstDay",2019-09-24 15:41:13,2019-09-24 15:41:26,12.733s,FAILED
"openBrowser("""")",Firefox 69.0,,,2019-09-24 15:41:13,2019-09-24 15:41:17,3.534s,PASSED
"navigateToUrl(""https://opensource-demo.orangehrmlive.com"")",Firefox 69.0,,,2019-09-24 15:41:17,2019-09-24 15:41:18,1.228s,PASSED
"setText(findTestObject(""Scripting/Page_OrangeHRM/input_LOGIN Panel_txtUsername""), ""Admin"")",Firefox 69.0,,,2019-09-24 15:41:18,2019-09-24 15:41:18,0.276s,PASSED
"setEncryptedText(findTestObject(""Scripting/Page_OrangeHRM/input_Username_txtPassword""), ""hUKwJTbofgPU9eVlw/CnDQ=="")",Firefox 69.0,,,2019-09-24 15:41:18,2019-09-24 15:41:18,0.161s,PASSED
"click(findTestObject(""Scripting/Page_OrangeHRM/input_Password_Submit""))",Firefox 69.0,,,2019-09-24 15:41:18,2019-09-24 15:41:19,0.934s,PASSED
"click(findTestObject(""Scripting/Page_OrangeHRM/a_Welcome Admin""))",Firefox 69.0,,,2019-09-24 15:41:19,2019-09-24 15:41:20,0.809s,PASSED
"waitForElementVisible(findTestObject(""Scripting/Page_OrangeHRM/a_Logout""), 5)",Firefox 69.0,,,2019-09-24 15:41:20,2019-09-24 15:41:26,5.346s,PASSED
"click(findTestObject(""Scripting/Page_OrangeHRM/a_Logout""))",Firefox 69.0,,,2019-09-24 15:41:26,2019-09-24 15:41:26,0.183s,FAILED
,,,,,,,
Test Cases/PJT_FirstDay/PJT_ScriptTest1,Firefox 69.0,Scripting test,"NEW, FirstDay, Scripted",2019-09-24 15:41:26,2019-09-24 15:41:39,13.465s,FAILED
"openBrowser("""")",Firefox 69.0,,,2019-09-24 15:41:26,2019-09-24 15:41:31,4.965s,PASSED
"navigateToUrl(""https://opensource-demo.orangehrmlive.com"")",Firefox 69.0,,,2019-09-24 15:41:31,2019-09-24 15:41:32,1.172s,PASSED
"setText(findTestObject(""Object Repository/Manual_Mode/Page_OrangeHRM/input_LOGIN Panel_txtUsername""), ""Admin"")",Firefox 69.0,,,2019-09-24 15:41:32,2019-09-24 15:41:32,0.087s,PASSED
"setEncryptedText(findTestObject(""Object Repository/Scripting/Page_OrangeHRM/input_Username_txtPassword""), ""hUKwJTbofgPU9eVlw/CnDQ=="")",Firefox 69.0,,,2019-09-24 15:41:32,2019-09-24 15:41:32,0.077s,PASSED
"click(findTestObject(""Object Repository/Manual_Mode/Page_OrangeHRM/input_Password_Submit""))",Firefox 69.0,,,2019-09-24 15:41:32,2019-09-24 15:41:33,0.868s,PASSED
"click(findTestObject(""Object Repository/Page_OrangeHRM/Page_OrangeHRM/a_Welcome Admin""))",Firefox 69.0,,,2019-09-24 15:41:33,2019-09-24 15:41:34,0.771s,PASSED
"waitForElementVisible(findTestObject(""Object Repository/Scripting/Page_OrangeHRM/a_Logout""), 5)",Firefox 69.0,,,2019-09-24 15:41:34,2019-09-24 15:41:39,5.254s,PASSED
"click(findTestObject(""Object Repository/Scripting/Page_OrangeHRM/a_Logout""))",Firefox 69.0,,,2019-09-24 15:41:39,2019-09-24 15:41:39,0.193s,FAILED
