Suite/Test/Step Name,Browser,Description,Tag,Start time,End time,Duration,Status
PJT_Suite1,Chrome 77.0.3865.90,First Test Suite,,2019-09-24 15:43:03,2019-09-24 15:43:30,26.523s,INCOMPLETE
,,,,,,,
Test Cases/PJT_FirstDay/PJT_ManualTest1,Chrome 77.0.3865.90,First Manual test case,"Manual, NEW, FirstDay",2019-09-24 15:43:03,2019-09-24 15:43:09,5.968s,PASSED
"openBrowser("""")",Chrome 77.0.3865.90,,,2019-09-24 15:43:04,2019-09-24 15:43:06,2.333s,PASSED
"navigateToUrl(""https://opensource-demo.orangehrmlive.com"")",Chrome 77.0.3865.90,,,2019-09-24 15:43:06,2019-09-24 15:43:07,0.807s,PASSED
"setText(findTestObject(""Scripting/Page_OrangeHRM/input_LOGIN Panel_txtUsername""), ""Admin"")",Chrome 77.0.3865.90,,,2019-09-24 15:43:07,2019-09-24 15:43:07,0.318s,PASSED
"setEncryptedText(findTestObject(""Scripting/Page_OrangeHRM/input_Username_txtPassword""), ""hUKwJTbofgPU9eVlw/CnDQ=="")",Chrome 77.0.3865.90,,,2019-09-24 15:43:07,2019-09-24 15:43:07,0.247s,PASSED
"click(findTestObject(""Scripting/Page_OrangeHRM/input_Password_Submit""))",Chrome 77.0.3865.90,,,2019-09-24 15:43:07,2019-09-24 15:43:08,0.779s,PASSED
"click(findTestObject(""Scripting/Page_OrangeHRM/a_Welcome Admin""))",Chrome 77.0.3865.90,,,2019-09-24 15:43:08,2019-09-24 15:43:09,0.577s,PASSED
"waitForElementVisible(findTestObject(""Scripting/Page_OrangeHRM/a_Logout""), 5)",Chrome 77.0.3865.90,,,2019-09-24 15:43:09,2019-09-24 15:43:09,0.205s,PASSED
"click(findTestObject(""Scripting/Page_OrangeHRM/a_Logout""))",Chrome 77.0.3865.90,,,2019-09-24 15:43:09,2019-09-24 15:43:09,0.382s,PASSED
closeBrowser(),Chrome 77.0.3865.90,,,2019-09-24 15:43:09,2019-09-24 15:43:09,0.116s,PASSED
,,,,,,,
Test Cases/PJT_FirstDay/PJT_ScriptTest1,Chrome 77.0.3865.90,Scripting test,"NEW, FirstDay, Scripted",2019-09-24 15:43:09,2019-09-24 15:43:30,20.319s,PASSED
"openBrowser("""")",Chrome 77.0.3865.90,,,2019-09-24 15:43:10,2019-09-24 15:43:11,1.069s,PASSED
"navigateToUrl(""https://opensource-demo.orangehrmlive.com"")",Chrome 77.0.3865.90,,,2019-09-24 15:43:11,2019-09-24 15:43:11,0.731s,PASSED
"setText(findTestObject(""Object Repository/Manual_Mode/Page_OrangeHRM/input_LOGIN Panel_txtUsername""), ""Admin"")",Chrome 77.0.3865.90,,,2019-09-24 15:43:11,2019-09-24 15:43:12,0.192s,PASSED
"setEncryptedText(findTestObject(""Object Repository/Scripting/Page_OrangeHRM/input_Username_txtPassword""), ""hUKwJTbofgPU9eVlw/CnDQ=="")",Chrome 77.0.3865.90,,,2019-09-24 15:43:12,2019-09-24 15:43:12,0.135s,PASSED
"click(findTestObject(""Object Repository/Manual_Mode/Page_OrangeHRM/input_Password_Submit""))",Chrome 77.0.3865.90,,,2019-09-24 15:43:12,2019-09-24 15:43:18,6.576s,PASSED
"click(findTestObject(""Object Repository/Page_OrangeHRM/Page_OrangeHRM/a_Welcome Admin""))",Chrome 77.0.3865.90,,,2019-09-24 15:43:18,2019-09-24 15:43:23,5.114s,PASSED
"waitForElementVisible(findTestObject(""Object Repository/Scripting/Page_OrangeHRM/a_Logout""), 5)",Chrome 77.0.3865.90,,,2019-09-24 15:43:23,2019-09-24 15:43:24,0.584s,PASSED
"click(findTestObject(""Object Repository/Scripting/Page_OrangeHRM/a_Logout""))",Chrome 77.0.3865.90,,,2019-09-24 15:43:24,2019-09-24 15:43:30,5.688s,PASSED
closeBrowser(),Chrome 77.0.3865.90,,,2019-09-24 15:43:30,2019-09-24 15:43:30,0.107s,PASSED
